lukas_work/sim.vcd
$date
	Thu Jan  4 21:23:27 2024
$end
$version
	Icarus Verilog
$end
$timescale
	1s
$end
$scope module crtl_mod_tb2 $end
$var wire 2 ! source2_choice [1:0] $end
$var wire 8 " source2 [7:0] $end
$var wire 2 # source1_choice [1:0] $end
$var wire 8 $ source1 [7:0] $end
$var wire 1 % push $end
$var wire 1 & pop $end
$var wire 6 ' op_code [5:0] $end
$var wire 2 ( destination_choice [1:0] $end
$var wire 8 ) destination [7:0] $end
$var reg 1 * clk $end
$var reg 1 + rst $end
$var reg 1 , zero_flag $end
$scope module constrol_module $end
$var wire 1 * clk $end
$var wire 1 + rst $end
$var wire 1 , zero_flag $end
$var wire 2 - source2_choice [1:0] $end
$var wire 8 . source2 [7:0] $end
$var wire 2 / source1_choice [1:0] $end
$var wire 8 0 source1 [7:0] $end
$var wire 5 1 ret_addr [4:0] $end
$var wire 1 2 ret $end
$var wire 1 % push $end
$var wire 1 & pop $end
$var wire 6 3 op_code [5:0] $end
$var wire 5 4 jmp_addr [4:0] $end
$var wire 1 5 jmp $end
$var wire 40 6 instruction [39:0] $end
$var wire 5 7 instr_addr [4:0] $end
$var wire 2 8 destination_choice [1:0] $end
$var wire 8 9 destination [7:0] $end
$var wire 1 : cal $end
$scope module decoder $end
$var wire 1 , zero_flag $end
$var wire 2 ; source2_choice [1:0] $end
$var wire 8 < source2 [7:0] $end
$var wire 2 = source1_choice [1:0] $end
$var wire 8 > source1 [7:0] $end
$var wire 1 2 ret $end
$var wire 1 % push $end
$var wire 1 & pop $end
$var wire 6 ? op_code [5:0] $end
$var wire 5 @ jmp_addr [4:0] $end
$var wire 1 5 jmp $end
$var wire 40 A instr [39:0] $end
$var wire 2 B destination_choice [1:0] $end
$var wire 8 C destination [7:0] $end
$var wire 1 : cal $end
$upscope $end
$scope module linked_reg $end
$var wire 1 : cal $end
$var wire 1 * clk $end
$var wire 1 2 ret $end
$var wire 5 D instr_addr [4:0] $end
$var reg 5 E ret_addr [4:0] $end
$upscope $end
$scope module memory $end
$var wire 40 F instruction [39:0] $end
$var wire 5 G pc [4:0] $end
$upscope $end
$scope module pc $end
$var wire 1 * clk $end
$var wire 1 5 jmp $end
$var wire 5 H jmp_addr [4:0] $end
$var wire 1 2 ret $end
$var wire 5 I ret_addr [4:0] $end
$var wire 1 + rst $end
$var reg 5 J instr_addr [4:0] $end
$upscope $end
$upscope $end
$upscope $end
$enddefinitions $end
#0
$dumpvars
b0 J
bx I
b10 H
b0 G
b1001000000010000000000000000000010101 F
bx E
b0 D
b0 C
b1 B
b1001000000010000000000000000000010101 A
b10 @
b10010 ?
b10 >
b1 =
b0 <
b1 ;
0:
b0 9
b1 8
b0 7
b1001000000010000000000000000000010101 6
15
b10 4
b10010 3
02
bx 1
b10 0
b1 /
b0 .
b1 -
1,
1+
1*
b0 )
b1 (
b10010 '
0&
0%
b10 $
b1 #
b0 "
b1 !
$end
#5
0*
#10
05
b0 4
b0 @
b0 H
b0 $
b0 0
b0 >
b10 '
b10 3
b10 ?
b1000000000000000000000000000010101 6
b1000000000000000000000000000010101 A
b1000000000000000000000000000010101 F
b10 7
b10 D
b10 G
b10 J
1*
0+
#15
0*
#20
b110 4
b110 @
b110 H
b110 $
b110 0
b110 >
b10011 '
b10011 3
b10011 ?
b1001100000110000000000000000000010101 6
b1001100000110000000000000000000010101 A
b1001100000110000000000000000000010101 F
b11 7
b11 D
b11 G
b11 J
1*
#25
0*
#30
b0 4
b0 @
b0 H
b0 $
b0 0
b0 >
b10 '
b10 3
b10 ?
b1000000000000000000000000000010101 6
b1000000000000000000000000000010101 A
b1000000000000000000000000000010101 F
b100 7
b100 D
b100 G
b100 J
1*
#35
0*
#40
15
b111 4
b111 @
b111 H
b111 $
b111 0
b111 >
b10011 '
b10011 3
b10011 ?
b1001100000111000000000000000000010101 6
b1001100000111000000000000000000010101 A
b1001100000111000000000000000000010101 F
b101 7
b101 D
b101 G
b101 J
1*
0,
#45
0*
#50
05
b0 4
b0 @
b0 H
b0 $
b0 0
b0 >
b10 '
b10 3
b10 ?
b1000000000000000000000000000010101 6
b1000000000000000000000000000010101 A
b1000000000000000000000000000010101 F
b111 7
b111 D
b111 G
b111 J
1*
#55
0*
#60
b1101 4
b1101 @
b1101 H
b1101 $
b1101 0
b1101 >
b10100 '
b10100 3
b10100 ?
b1010000001101000000000000000000010101 6
b1010000001101000000000000000000010101 A
b1010000001101000000000000000000010101 F
b1000 7
b1000 D
b1000 G
b1000 J
1*
#65
0*
#70
b0 4
b0 @
b0 H
b0 $
b0 0
b0 >
b10 '
b10 3
b10 ?
b1000000000000000000000000000010101 6
b1000000000000000000000000000010101 A
b1000000000000000000000000000010101 F
b1001 7
b1001 D
b1001 G
b1001 J
1*
#75
0*
#80
15
b1101 4
b1101 @
b1101 H
b1101 $
b1101 0
b1101 >
b10100 '
b10100 3
b10100 ?
b1010000001101000000000000000000010101 6
b1010000001101000000000000000000010101 A
b1010000001101000000000000000000010101 F
b1010 7
b1010 D
b1010 G
b1010 J
1*
1,
#85
0*
#90
1:
1%
b11000 4
b11000 @
b11000 H
b11000 $
b11000 0
b11000 >
b10101 '
b10101 3
b10101 ?
b1010100011000000000000000000000010101 6
b1010100011000000000000000000000010101 A
b1010100011000000000000000000000010101 F
b1101 7
b1101 D
b1101 G
b1101 J
1*
#95
0*
#100
0:
05
0%
b1 4
b1 @
b1 H
b1 $
b1 0
b1 >
b10 '
b10 3
b10 ?
b1000000001000000000000000000010101 6
b1000000001000000000000000000010101 A
b1000000001000000000000000000010101 F
b11000 7
b11000 D
b11000 G
b11000 J
b1101 1
b1101 E
b1101 I
1*
#105
0*
#110
12
1&
b0 4
b0 @
b0 H
b0 $
b0 0
b0 >
b11000 '
b11000 3
b11000 ?
b1100000000000000000000000000000010101 6
b1100000000000000000000000000000010101 A
b1100000000000000000000000000000010101 F
b11001 7
b11001 D
b11001 G
b11001 J
1*
#115
0*
#120
02
0&
b10 '
b10 3
b10 ?
b1000000000000000000000000000010101 6
b1000000000000000000000000000010101 A
b1000000000000000000000000000010101 F
b1110 7
b1110 D
b1110 G
b1110 J
1*
#125
0*
#130
b11010 4
b11010 @
b11010 H
b11010 $
b11010 0
b11010 >
b10110 '
b10110 3
b10110 ?
b1011000011010000000000000000000010101 6
b1011000011010000000000000000000010101 A
b1011000011010000000000000000000010101 F
b1111 7
b1111 D
b1111 G
b1111 J
1*
#135
0*
#140
b0 4
b0 @
b0 H
b0 $
b0 0
b0 >
b10 '
b10 3
b10 ?
b1000000000000000000000000000010101 6
b1000000000000000000000000000010101 A
b1000000000000000000000000000010101 F
b10000 7
b10000 D
b10000 G
b10000 J
1*
#145
0*
#150
1:
15
1%
b11010 4
b11010 @
b11010 H
b11010 $
b11010 0
b11010 >
b10110 '
b10110 3
b10110 ?
b1011000011010000000000000000000010101 6
b1011000011010000000000000000000010101 A
b1011000011010000000000000000000010101 F
b10001 7
b10001 D
b10001 G
b10001 J
1*
0,
#155
0*
#160
0:
05
0%
b10 4
b10 @
b10 H
b10 $
b10 0
b10 >
b10 '
b10 3
b10 ?
b1000000010000000000000000000010101 6
b1000000010000000000000000000010101 A
b1000000010000000000000000000010101 F
b11010 7
b11010 D
b11010 G
b11010 J
b10001 1
b10001 E
b10001 I
1*
#165
0*
#170
12
1&
b0 4
b0 @
b0 H
b0 $
b0 0
b0 >
b11000 '
b11000 3
b11000 ?
b1100000000000000000000000000000010101 6
b1100000000000000000000000000000010101 A
b1100000000000000000000000000000010101 F
b11011 7
b11011 D
b11011 G
b11011 J
1*
#175
0*
#180
02
0&
b10 '
b10 3
b10 ?
b1000000000000000000000000000010101 6
b1000000000000000000000000000010101 A
b1000000000000000000000000000010101 F
b10010 7
b10010 D
b10010 G
b10010 J
1*
#185
0*
#190
b11100 4
b11100 @
b11100 H
b11100 $
b11100 0
b11100 >
b10111 '
b10111 3
b10111 ?
b1011100011100000000000000000000010101 6
b1011100011100000000000000000000010101 A
b1011100011100000000000000000000010101 F
b10011 7
b10011 D
b10011 G
b10011 J
1*
#195
0*
#200
b0 4
b0 @
b0 H
b0 $
b0 0
b0 >
b10 '
b10 3
b10 ?
b1000000000000000000000000000010101 6
b1000000000000000000000000000010101 A
b1000000000000000000000000000010101 F
b10100 7
b10100 D
b10100 G
b10100 J
0:
05
0%
1*
1,
#205
0*
#210
1:
15
1%
b11100 4
b11100 @
b11100 H
b11100 $
b11100 0
b11100 >
b10111 '
b10111 3
b10111 ?
b1011100011100000000000000000000010101 6
b1011100011100000000000000000000010101 A
b1011100011100000000000000000000010101 F
b10101 7
b10101 D
b10101 G
b10101 J
1*
#215
0*
#220
0:
05
0%
b11 4
b11 @
b11 H
b11 $
b11 0
b11 >
b10 '
b10 3
b10 ?
b1000000011000000000000000000010101 6
b1000000011000000000000000000010101 A
b1000000011000000000000000000010101 F
b11100 7
b11100 D
b11100 G
b11100 J
b10101 1
b10101 E
b10101 I
1*
#225
0*
#230
12
1&
b0 4
b0 @
b0 H
b0 $
b0 0
b0 >
b11000 '
b11000 3
b11000 ?
b1100000000000000000000000000000010101 6
b1100000000000000000000000000000010101 A
b1100000000000000000000000000000010101 F
b11101 7
b11101 D
b11101 G
b11101 J
1*
#235
0*
#240
02
0&
b10 '
b10 3
b10 ?
b1000000000000000000000000000010101 6
b1000000000000000000000000000010101 A
b1000000000000000000000000000010101 F
b10110 7
b10110 D
b10110 G
b10110 J
1*
#245
0*
#250
15
b10010 '
b10010 3
b10010 ?
b1001000000000000000000000000000010101 6
b1001000000000000000000000000000010101 A
b1001000000000000000000000000000010101 F
b10111 7
b10111 D
b10111 G
b10111 J
1*
#255
0*
#260
b10 4
b10 @
b10 H
b10 $
b10 0
b10 >
b1001000000010000000000000000000010101 6
b1001000000010000000000000000000010101 A
b1001000000010000000000000000000010101 F
b0 7
b0 D
b0 G
b0 J
1*
#265
0*
#270
05
b0 4
b0 @
b0 H
b0 $
b0 0
b0 >
b10 '
b10 3
b10 ?
b1000000000000000000000000000010101 6
b1000000000000000000000000000010101 A
b1000000000000000000000000000010101 F
b10 7
b10 D
b10 G
b10 J
1*
#275
0*
#280
b110 4
b110 @
b110 H
b110 $
b110 0
b110 >
b10011 '
b10011 3
b10011 ?
b1001100000110000000000000000000010101 6
b1001100000110000000000000000000010101 A
b1001100000110000000000000000000010101 F
b11 7
b11 D
b11 G
b11 J
1*
#285
0*
#290
b0 4
b0 @
b0 H
b0 $
b0 0
b0 >
b10 '
b10 3
b10 ?
b1000000000000000000000000000010101 6
b1000000000000000000000000000010101 A
b1000000000000000000000000000010101 F
b100 7
b100 D
b100 G
b100 J
1*
#295
0*
#300
b111 4
b111 @
b111 H
b111 $
b111 0
b111 >
b10011 '
b10011 3
b10011 ?
b1001100000111000000000000000000010101 6
b1001100000111000000000000000000010101 A
b1001100000111000000000000000000010101 F
b101 7
b101 D
b101 G
b101 J
1*
